…
  - Calculate CSI using weighted mean of `MR1`, `MR2`, and `MR3` scores for each census block group.
    - By updating the `scale` method of input values, PCP identifies 3 `MR` which account for 95% of the variance.
    - CSI is calculated by multiplying the weight of each `MR` (ie. the % variance it explains) by the score, and summing for each census block group.
    - Output object contains this "raw" CSI value (`$csi`), as well as normalized (`$csi_normal`) , and normalized values * 100 for interpretability (`$cs_100`)
  
```
> df_scores[, c("csi", "csi_normal", "csi_100")]
# A tibble: 105 × 3
        csi csi_normal csi_100
      <dbl>      <dbl>   <dbl>
 1  0.00259     0.159    15.9
 2  0.0656      0.176    17.6
 3 -0.159       0.118    11.8
 4  0.192       0.208    20.8
 5 -0.379       0.0618    6.18
 6 -0.126       0.127    12.7
 7 -0.351       0.0689    6.89
 8 -0.269       0.0900    9.00
 9 -0.311       0.0792    7.92
10  0.364       0.252    25.2
# ℹ 95 more rows
# ℹ Use `print(n = ...)` to see more rows
```
…
